<?xml version="1.0" encoding="UTF-8"?>
<svg width="855px" height="214px" viewBox="0 0 855 214" version="1.1" xmlns="http://www.w3.org/2000/svg" xmlns:xlink="http://www.w3.org/1999/xlink">
    <!-- Generator: Sketch 50.2 (55047) - http://www.bohemiancoding.com/sketch -->
    <title>Path 60</title>
    <desc>Created with Sketch.</desc>
    <defs></defs>
    <g id="Symbols" stroke="none" stroke-width="1" fill="none" fill-rule="evenodd" stroke-dasharray="4.881226148641886">
        <g id="section_4" transform="translate(-81.000000, -188.000000)" stroke="#000000" stroke-width="0.97624523">
            <g transform="translate(0.000000, 66.000000)" id="background">
                <g>
                    <g>
                        <path d="M935.983138,193.871004 C855.10784,252.868317 794.318355,289.316742 753.614681,303.216278 C597.701348,356.457739 512.241599,331.037972 473.553715,316.677075 C434.865832,302.316177 396.829133,285.70767 378.34742,246.2596 C359.865707,206.81153 423.228764,160.157682 453.553715,206.81153 C483.878666,253.465379 410.580942,289.467321 335.323925,282.098634 C260.066909,274.729947 133.251382,250.834925 81.5036732,122.492525" id="Path-60"></path>
                    </g>
                </g>
            </g>
        </g>
    </g>
</svg>